<?xml version="1.0" encoding="UTF-8" standalone="no"?>
<svg xmlns="http://www.w3.org/2000/svg" contentScriptType="application/ecmascript" contentStyleType="text/css"
     height="378px" preserveAspectRatio="none" style="width:627px;height:378px;" version="1.1" viewBox="0 0 627 378"
     width="627px" zoomAndPan="magnify"><defs><filter height="300%" id="fq88z2vsp5uou" width="300%" x="-1" y="-1"><feGaussianBlur result="blurOut" stdDeviation="2.0"/><feColorMatrix in="blurOut" result="blurOut2" type="matrix" values="0 0 0 0 0 0 0 0 0 0 0 0 0 0 0 0 0 0 .4 0"/><feOffset dx="4.0" dy="4.0" in="blurOut2" result="blurOut3"/><feBlend in="SourceGraphic" in2="blurOut3" mode="normal"/></filter></defs><g><!--class ExternalTextureSource--><rect fill="#FEFECE" filter="url(#fq88z2vsp5uou)" height="52.8047" id="ExternalTextureSource" style="stroke: #A80036; stroke-width: 1.5;" width="174" x="6" y="176.5"/><ellipse cx="21" cy="192.5" fill="#ADD1B2" rx="11" ry="11" style="stroke: #A80036; stroke-width: 1.0;"/><path d="M23.9688,198.1406 Q23.3906,198.4375 22.75,198.5859 Q22.1094,198.7344 21.4063,198.7344 Q18.9063,198.7344 17.5859,197.0859 Q16.2656,195.4375 16.2656,192.3125 Q16.2656,189.1875 17.5859,187.5313 Q18.9063,185.875 21.4063,185.875 Q22.1094,185.875 22.7578,186.0313 Q23.4063,186.1875 23.9688,186.4844 L23.9688,189.2031 Q23.3438,188.625 22.75,188.3516 Q22.1563,188.0781 21.5313,188.0781 Q20.1875,188.0781 19.5,189.1484 Q18.8125,190.2188 18.8125,192.3125 Q18.8125,194.4063 19.5,195.4766 Q20.1875,196.5469 21.5313,196.5469 Q22.1563,196.5469 22.75,196.2734 Q23.3438,196 23.9688,195.4219 L23.9688,198.1406 Z "/><text fill="#000000" font-family="sans-serif" font-size="12" lengthAdjust="spacingAndGlyphs" textLength="142" x="35" y="196.6543">ExternalTextureSource</text><line style="stroke: #A80036; stroke-width: 1.5;" x1="7" x2="179" y1="208.5" y2="208.5"/><ellipse cx="17" cy="220.4023" fill="#84BE84" rx="3" ry="3" style="stroke: #038048; stroke-width: 1.0;"/><text fill="#000000" font-family="sans-serif" font-size="11" lengthAdjust="spacingAndGlyphs" textLength="86" x="26" y="222.7104">setParameter()</text><!--class ExternalTextureSourceManager--><rect fill="#FEFECE" filter="url(#fq88z2vsp5uou)" height="65.6094" id="ExternalTextureSourceManager" style="stroke: #A80036; stroke-width: 1.5;" width="229" x="184.5" y="302"/><ellipse cx="199.5" cy="318" fill="#ADD1B2" rx="11" ry="11" style="stroke: #A80036; stroke-width: 1.0;"/><path d="M202.4688,323.6406 Q201.8906,323.9375 201.25,324.0859 Q200.6094,324.2344 199.9063,324.2344 Q197.4063,324.2344 196.0859,322.5859 Q194.7656,320.9375 194.7656,317.8125 Q194.7656,314.6875 196.0859,313.0313 Q197.4063,311.375 199.9063,311.375 Q200.6094,311.375 201.2578,311.5313 Q201.9063,311.6875 202.4688,311.9844 L202.4688,314.7031 Q201.8438,314.125 201.25,313.8516 Q200.6563,313.5781 200.0313,313.5781 Q198.6875,313.5781 198,314.6484 Q197.3125,315.7188 197.3125,317.8125 Q197.3125,319.9063 198,320.9766 Q198.6875,322.0469 200.0313,322.0469 Q200.6563,322.0469 201.25,321.7734 Q201.8438,321.5 202.4688,320.9219 L202.4688,323.6406 Z "/><text fill="#000000" font-family="sans-serif" font-size="12" lengthAdjust="spacingAndGlyphs" textLength="197" x="213.5" y="322.1543">ExternalTextureSourceManager</text><line style="stroke: #A80036; stroke-width: 1.5;" x1="185.5" x2="412.5" y1="334" y2="334"/><ellipse cx="195.5" cy="345.9023" fill="#84BE84" rx="3" ry="3" style="stroke: #038048; stroke-width: 1.0;"/><text fill="#000000" font-family="sans-serif" font-size="11" lengthAdjust="spacingAndGlyphs" textLength="155" x="204.5" y="348.2104">setExternalTextureSource()</text><ellipse cx="195.5" cy="358.707" fill="#84BE84" rx="3" ry="3" style="stroke: #038048; stroke-width: 1.0;"/><text fill="#000000" font-family="sans-serif" font-size="11" lengthAdjust="spacingAndGlyphs" textLength="103" x="204.5" y="361.0151">setCurrentPlugin()</text><!--class MaterialSerializer--><rect fill="#FEFECE" filter="url(#fq88z2vsp5uou)" height="78.4141" id="MaterialSerializer" style="stroke: #A80036; stroke-width: 1.5;" width="167" x="215.5" y="164"/><ellipse cx="243.55" cy="180" fill="#ADD1B2" rx="11" ry="11" style="stroke: #A80036; stroke-width: 1.0;"/><path d="M246.5188,185.6406 Q245.9406,185.9375 245.3,186.0859 Q244.6594,186.2344 243.9563,186.2344 Q241.4563,186.2344 240.1359,184.5859 Q238.8156,182.9375 238.8156,179.8125 Q238.8156,176.6875 240.1359,175.0313 Q241.4563,173.375 243.9563,173.375 Q244.6594,173.375 245.3078,173.5313 Q245.9563,173.6875 246.5188,173.9844 L246.5188,176.7031 Q245.8938,176.125 245.3,175.8516 Q244.7063,175.5781 244.0813,175.5781 Q242.7375,175.5781 242.05,176.6484 Q241.3625,177.7188 241.3625,179.8125 Q241.3625,181.9063 242.05,182.9766 Q242.7375,184.0469 244.0813,184.0469 Q244.7063,184.0469 245.3,183.7734 Q245.8938,183.5 246.5188,182.9219 L246.5188,185.6406 Z "/><text fill="#000000" font-family="sans-serif" font-size="12" lengthAdjust="spacingAndGlyphs" textLength="106" x="260.45" y="184.1543">MaterialSerializer</text><line style="stroke: #A80036; stroke-width: 1.5;" x1="216.5" x2="381.5" y1="196" y2="196"/><ellipse cx="226.5" cy="207.9023" fill="#000000" rx="3" ry="3" style="stroke: #000000; stroke-width: 1.0;"/><text fill="#000000" font-family="sans-serif" font-size="11" lengthAdjust="spacingAndGlyphs" textLength="138" x="235.5" y="210.2104">Set "video" plugin active</text><ellipse cx="226.5" cy="220.707" fill="#000000" rx="3" ry="3" style="stroke: #000000; stroke-width: 1.0;"/><text fill="#000000" font-family="sans-serif" font-size="11" lengthAdjust="spacingAndGlyphs" textLength="141" x="235.5" y="223.0151">Parse &amp; Set parameters</text><ellipse cx="226.5" cy="233.5117" fill="#000000" rx="3" ry="3" style="stroke: #000000; stroke-width: 1.0;"/><text fill="#000000" font-family="sans-serif" font-size="11" lengthAdjust="spacingAndGlyphs" textLength="85" x="235.5" y="235.8198">Create Texture</text><!--class Plugin_ffmpegVideoSystem--><rect fill="#FEFECE" filter="url(#fq88z2vsp5uou)" height="52.8047" id="Plugin_ffmpegVideoSystem" style="stroke: #A80036; stroke-width: 1.5;" width="199" x="417.5" y="176.5"/><ellipse cx="432.5" cy="192.5" fill="#ADD1B2" rx="11" ry="11" style="stroke: #A80036; stroke-width: 1.0;"/><path d="M435.4688,198.1406 Q434.8906,198.4375 434.25,198.5859 Q433.6094,198.7344 432.9063,198.7344 Q430.4063,198.7344 429.0859,197.0859 Q427.7656,195.4375 427.7656,192.3125 Q427.7656,189.1875 429.0859,187.5313 Q430.4063,185.875 432.9063,185.875 Q433.6094,185.875 434.2578,186.0313 Q434.9063,186.1875 435.4688,186.4844 L435.4688,189.2031 Q434.8438,188.625 434.25,188.3516 Q433.6563,188.0781 433.0313,188.0781 Q431.6875,188.0781 431,189.1484 Q430.3125,190.2188 430.3125,192.3125 Q430.3125,194.4063 431,195.4766 Q431.6875,196.5469 433.0313,196.5469 Q433.6563,196.5469 434.25,196.2734 Q434.8438,196 435.4688,195.4219 L435.4688,198.1406 Z "/><text fill="#000000" font-family="sans-serif" font-size="12" lengthAdjust="spacingAndGlyphs" textLength="167" x="446.5" y="196.6543">Plugin_ffmpegVideoSystem</text><line style="stroke: #A80036; stroke-width: 1.5;" x1="418.5" x2="615.5" y1="208.5" y2="208.5"/><ellipse cx="428.5" cy="220.4023" fill="#84BE84" rx="3" ry="3" style="stroke: #038048; stroke-width: 1.0;"/><text fill="#000000" font-family="sans-serif" font-size="11" lengthAdjust="spacingAndGlyphs" textLength="83" x="437.5" y="222.7104">dllStartPlugin()</text><rect fill="#FEFECE" filter="url(#fq88z2vsp5uou)" height="60.8906" style="stroke: #A80036; stroke-width: 1.5;" width="184" x="425" y="25.5"/><text fill="#000000" font-family="sans-serif" font-size="12" lengthAdjust="spacingAndGlyphs" textLength="68" x="483" y="38.6387">Plugins.cfg</text><line style="stroke: #A80036; stroke-width: 1.5;" x1="426" x2="608" y1="43.4688" y2="43.4688"/><text fill="#000000" font-family="sans-serif" font-size="10" lengthAdjust="spacingAndGlyphs" textLength="172" x="431" y="56.751">Plugin=Plugin_ffmpegVideoSystem</text><text fill="#000000" font-family="sans-serif" font-size="10" lengthAdjust="spacingAndGlyphs" textLength="43" x="431" y="68.3916">Plugin=..</text><text fill="#000000" font-family="sans-serif" font-size="10" lengthAdjust="spacingAndGlyphs" textLength="43" x="431" y="80.0322">Plugin=..</text><rect fill="#FEFECE" filter="url(#fq88z2vsp5uou)" height="95.8125" style="stroke: #A80036; stroke-width: 1.5;" width="154" x="222" y="8"/><text fill="#000000" font-family="sans-serif" font-size="12" lengthAdjust="spacingAndGlyphs" textLength="140" x="229" y="21.1387">Sample Material Script</text><line style="stroke: #A80036; stroke-width: 1.5;" x1="223" x2="375" y1="25.9688" y2="25.9688"/><text fill="#000000" font-family="sans-serif" font-size="10" lengthAdjust="spacingAndGlyphs" textLength="22" x="228" y="39.251">pass</text><text fill="#000000" font-family="sans-serif" font-size="10" lengthAdjust="spacingAndGlyphs" textLength="6" x="228" y="50.8916">{</text><text fill="#000000" font-family="sans-serif" font-size="10" lengthAdjust="spacingAndGlyphs" textLength="95" x="252" y="62.5322">filename test.mpeg</text><text fill="#000000" font-family="sans-serif" font-size="10" lengthAdjust="spacingAndGlyphs" textLength="76" x="252" y="74.1729">play_mode play</text><text fill="#000000" font-family="sans-serif" font-size="10" lengthAdjust="spacingAndGlyphs" textLength="77" x="252" y="85.8135">sound_mode on</text><text fill="#000000" font-family="sans-serif" font-size="10" lengthAdjust="spacingAndGlyphs" textLength="6" x="228" y="97.4541">}</text><!--link ExternalTextureSource to ExternalTextureSourceManager--><path d="M133.699,229.684 C163.196,248.298 203.612,273.8039 237.097,294.935 " fill="none" id="ExternalTextureSource-ExternalTextureSourceManager" style="stroke: #A80036; stroke-width: 1.0;"/><polygon fill="#FFFFFF" points="248.161,301.9173,245.2219,295.3323,238.0131,295.5126,240.9522,302.0976,248.161,301.9173" style="stroke: #A80036; stroke-width: 1.0;"/><!--link Plugins.cfg to Plugin_ffmpegVideoSystem--><path d="M517,86.693 C517,113.041 517,151.14 517,176.23 " fill="none" id="Plugins.cfg-Plugin_ffmpegVideoSystem" style="stroke: #A80036; stroke-width: 1.0;"/><!--link Plugin_ffmpegVideoSystem to ExternalTextureSourceManager--><path d="M474.19,229.529 C440.827,249.424 394.148,277.2603 357.362,299.1967 " fill="none" id="Plugin_ffmpegVideoSystem-ExternalTextureSourceManager" style="stroke: #A80036; stroke-width: 1.0;"/><polygon fill="#A80036" points="352.927,301.8417,362.7055,300.6667,357.2212,299.2804,358.6075,293.7961,352.927,301.8417" style="stroke: #A80036; stroke-width: 1.0;"/><!--link MaterialSerializer to ExternalTextureSourceManager--><path d="M299,242.301 C299,259.406 299,279.4953 299,296.5042 " fill="none" id="MaterialSerializer-ExternalTextureSourceManager" style="stroke: #A80036; stroke-width: 1.0;"/><polygon fill="#A80036" points="299,301.6772,303,292.6772,299,296.6772,295,292.6772,299,301.6772" style="stroke: #A80036; stroke-width: 1.0;"/><!--link material to MaterialSerializer--><path d="M299,104.077 C299,123.428 299,145.544 299,163.857 " fill="none" id="material-MaterialSerializer" style="stroke: #A80036; stroke-width: 1.0;"/><!--
@startuml
hide empty members
set namespaceSeparator none
class ExternalTextureSource {
+ setParameter()
}
class ExternalTextureSourceManager {
+ setExternalTextureSource()
+ setCurrentPlugin()
}
ExternalTextureSource -up-o ExternalTextureSourceManager
class MaterialSerializer {
    * Set "video" plugin active
    * Parse & Set parameters
    * Create Texture
}
class Plugin_ffmpegVideoSystem {
+ dllStartPlugin()
}
object Plugins.cfg {
    Plugin=Plugin_ffmpegVideoSystem
    Plugin=..
    Plugin=..
}
Plugins.cfg - - Plugin_ffmpegVideoSystem
Plugin_ffmpegVideoSystem -down-> ExternalTextureSourceManager
MaterialSerializer -down-> ExternalTextureSourceManager

object "Sample Material Script" as material {
pass
&#123;
\tfilename test.mpeg
\tplay_mode play
\tsound_mode on
&#125;
}
material - - MaterialSerializer

@enduml 

PlantUML version 1.2017.15(Mon Jul 03 18:45:34 CEST 2017)
(GPL source distribution)
Java Runtime: OpenJDK Runtime Environment
JVM: OpenJDK 64-Bit Server VM
Java Version: 1.8.0_131-8u131-b11-2ubuntu1.16.04.3-b11
Operating System: Linux
OS Version: 4.10.0-32-generic
Default Encoding: UTF-8
Language: de
Country: DE
--></g></svg>